Copyright 1986-2018 Xilinx, Inc. All Rights Reserved.
------------------------------------------------------------------------------------------------------------------------------------------------
| Tool Version : Vivado v.2018.2 (lin64) Build 2258646 Thu Jun 14 20:02:38 MDT 2018
| Date         : Mon Feb 10 09:42:23 2020
| Host         : badwlrz-cllxtpo16 running 64-bit Ubuntu 18.04.2 LTS
| Command      : report_bus_skew -warn_on_violation -file conv2_bus_skew_routed.rpt -pb conv2_bus_skew_routed.pb -rpx conv2_bus_skew_routed.rpx
| Design       : conv2
| Device       : 7s50-ftgb196
| Speed File   : -1  PRODUCTION 1.22 2018-03-21
------------------------------------------------------------------------------------------------------------------------------------------------

Bus Skew Report

No bus skew constraints

